"STEAM_0:1:87886192"	
{
	"deny"	
	{
	}
	"allow"	
	{
	}
	"name"	"Lasse Bengtsson"
	"group"	"superadmin"
}
"STEAM_0:1:46782973"	
{
	"deny"	
	{
	}
	"allow"	
	{
	}
	"name"	"Karl Bengtsson"
	"group"	"superadmin"
}
